unlock/main.vcd
$date
	Wed Nov 16 20:01:15 2022
$end
$version
	Icarus Verilog
$end
$timescale
	1ns
$end
$scope module main $end
$var wire 1 ! unlock0 $end
$var reg 2 " a [1:0] $end
$var reg 1 # clk $end
$var reg 1 $ reset $end
$scope module uuf $end
$var wire 2 % a [1:0] $end
$var wire 1 # clk $end
$var wire 1 $ reset $end
$var wire 1 ! unlock $end
$var wire 2 & next_state [1:0] $end
$var wire 2 ' current_state [1:0] $end
$scope module s0 $end
$var wire 1 # clk $end
$var wire 1 ( d $end
$var wire 1 ) data $end
$var wire 1 * neq_clk $end
$var wire 1 $ reset $end
$var wire 1 + q0 $end
$var wire 1 , q $end
$var wire 1 - neq_q0 $end
$var wire 1 . neq_q $end
$scope module d0 $end
$var wire 1 ) d $end
$var wire 1 * e $end
$var wire 1 / r $end
$var wire 1 0 s $end
$var wire 1 + q $end
$var wire 1 - neq_q $end
$scope module l0 $end
$var wire 1 - neq_q $end
$var wire 1 + q $end
$var wire 1 / r $end
$var wire 1 0 s $end
$upscope $end
$upscope $end
$scope module d1 $end
$var wire 1 + d $end
$var wire 1 # e $end
$var wire 1 1 r $end
$var wire 1 2 s $end
$var wire 1 , q $end
$var wire 1 . neq_q $end
$scope module l0 $end
$var wire 1 . neq_q $end
$var wire 1 , q $end
$var wire 1 1 r $end
$var wire 1 2 s $end
$upscope $end
$upscope $end
$upscope $end
$scope module s1 $end
$var wire 1 # clk $end
$var wire 1 3 d $end
$var wire 1 4 data $end
$var wire 1 5 neq_clk $end
$var wire 1 $ reset $end
$var wire 1 6 q0 $end
$var wire 1 7 q $end
$var wire 1 8 neq_q0 $end
$var wire 1 9 neq_q $end
$scope module d0 $end
$var wire 1 4 d $end
$var wire 1 5 e $end
$var wire 1 : r $end
$var wire 1 ; s $end
$var wire 1 6 q $end
$var wire 1 8 neq_q $end
$scope module l0 $end
$var wire 1 8 neq_q $end
$var wire 1 6 q $end
$var wire 1 : r $end
$var wire 1 ; s $end
$upscope $end
$upscope $end
$scope module d1 $end
$var wire 1 6 d $end
$var wire 1 # e $end
$var wire 1 < r $end
$var wire 1 = s $end
$var wire 1 7 q $end
$var wire 1 9 neq_q $end
$scope module l0 $end
$var wire 1 9 neq_q $end
$var wire 1 7 q $end
$var wire 1 < r $end
$var wire 1 = s $end
$upscope $end
$upscope $end
$upscope $end
$upscope $end
$upscope $end
$enddefinitions $end
$comment Show the parameter values. $end
$dumpall
$end
#0
$dumpvars
0=
0<
0;
1:
x9
18
x7
06
15
04
03
02
01
00
1/
x.
1-
x,
0+
1*
0)
0(
bx '
b0 &
b0 %
1$
0#
b0 "
x!
$end
#5
1.
19
0!
0,
b0 '
07
0/
0:
0*
11
05
1<
1#
#10
1/
1:
1*
01
15
0<
0#
0$
#15
0/
0:
0*
11
05
1<
1#
#20
1/
1:
1*
01
15
0<
0#
#25
0/
0:
0*
11
05
1<
1#
#30
1+
0-
10
1)
1(
b1 &
0/
1:
1*
01
15
0<
0#
b11 "
b11 %
#35
0)
0(
b0 &
b1 '
1,
0.
00
0:
0*
12
05
1<
1#
#40
16
08
1;
1-
14
13
0+
b10 &
1/
0:
1*
02
15
0<
0#
b1 "
b1 %
#45
04
03
b0 &
1!
1.
17
b10 '
0,
09
0/
0;
0*
11
05
1=
1#
#50
18
06
1/
1:
1*
01
15
0=
0#
#55
19
0!
b0 '
07
0/
0:
0*
11
05
1<
1#
#60
1/
1:
1*
01
15
0<
0#
